{
  "common_knowledge": [
    "https://w3id.org/laas-iot/edr/iiot/distribution/distribution_4.ttl"
  ],
  "centralized": "adp",
  "name": "myFactory",
  "layers": {
    "concentrates": [
      {
        "concentrates": [
          {
            "concentrates": [
              {
                "type": "sensor",
                "feature": "https://w3id.org/laas-iot/edr/iiot/factory#Conveyor00",
                "up": 0,
                "host": "http://blacksad.laas.fr",
                "count": 1,
                "measures": "luminosity"
              },
              {
                "type": "sensor",
                "feature": "https://w3id.org/laas-iot/edr/iiot/factory#Conveyor00",
                "up": 0,
                "host": "http://blacksad.laas.fr",
                "count": 1,
                "measures": "presence"
              },
              {
                "type": "sensor",
                "feature": "https://w3id.org/laas-iot/edr/iiot/factory#Conveyor00",
                "up": 0,
                "host": "http://blacksad.laas.fr",
                "count": 1,
                "measures": "conveyor_state"
              },
              {
                "type": "sensor",
                "feature": "https://w3id.org/laas-iot/edr/iiot/factory#Conveyor00",
                "up": 0,
                "host": "http://blacksad.laas.fr",
                "count": 1,
                "measures": "conveyor_speed"
              },
              {
                "type": "sensor",
                "feature": "https://w3id.org/laas-iot/edr/iiot/factory#Conveyor00",
                "up": 0,
                "host": "http://blacksad.laas.fr",
                "count": 1,
                "measures": "supervisor_presence"
              },
              {
                "concentrates": [
                  {
                    "type": "sensor",
                    "feature": "https://w3id.org/laas-iot/edr/iiot/factory#Machine000",
                    "up": 0,
                    "host": "http://blacksad.laas.fr",
                    "count": 1,
                    "measures": "particle_level"
                  },
                  {
                    "type": "sensor",
                    "feature": "https://w3id.org/laas-iot/edr/iiot/factory#Machine000",
                    "up": 0,
                    "host": "http://blacksad.laas.fr",
                    "count": 1,
                    "measures": "luminosity"
                  },
                  {
                    "type": "sensor",
                    "feature": "https://w3id.org/laas-iot/edr/iiot/factory#Machine000",
                    "up": 0,
                    "host": "http://blacksad.laas.fr",
                    "count": 1,
                    "measures": "presence"
                  },
                  {
                    "type": "sensor",
                    "feature": "https://w3id.org/laas-iot/edr/iiot/factory#Machine000",
                    "up": 0,
                    "host": "http://blacksad.laas.fr",
                    "count": 1,
                    "measures": "machine_state"
                  },
                  {
                    "type": "sensor",
                    "feature": "https://w3id.org/laas-iot/edr/iiot/factory#Machine000",
                    "up": 0,
                    "host": "http://blacksad.laas.fr",
                    "count": 1,
                    "measures": "product_quality"
                  },
                  {
                    "type": "sensor",
                    "feature": "https://w3id.org/laas-iot/edr/iiot/factory#Machine000",
                    "up": 0,
                    "host": "http://blacksad.laas.fr",
                    "count": 1,
                    "measures": "machine_speed"
                  }
                ],
                "host": "http://syndream.laas.fr",
                "count": 1,
                "type": "room",
                "feature": "https://w3id.org/laas-iot/edr/iiot/factory#Machine000"
              },
              {
                "concentrates": [
                  {
                    "type": "sensor",
                    "feature": "https://w3id.org/laas-iot/edr/iiot/factory#Machine001",
                    "up": 0,
                    "host": "http://blacksad.laas.fr",
                    "count": 1,
                    "measures": "temperature"
                  },
                  {
                    "type": "sensor",
                    "feature": "https://w3id.org/laas-iot/edr/iiot/factory#Machine001",
                    "up": 0,
                    "host": "http://blacksad.laas.fr",
                    "count": 1,
                    "measures": "luminosity"
                  },
                  {
                    "type": "sensor",
                    "feature": "https://w3id.org/laas-iot/edr/iiot/factory#Machine001",
                    "up": 0,
                    "host": "http://blacksad.laas.fr",
                    "count": 1,
                    "measures": "presence"
                  },
                  {
                    "type": "sensor",
                    "feature": "https://w3id.org/laas-iot/edr/iiot/factory#Machine001",
                    "up": 0,
                    "host": "http://blacksad.laas.fr",
                    "count": 1,
                    "measures": "machine_state"
                  },
                  {
                    "type": "sensor",
                    "feature": "https://w3id.org/laas-iot/edr/iiot/factory#Machine001",
                    "up": 0,
                    "host": "http://blacksad.laas.fr",
                    "count": 1,
                    "measures": "product_quality"
                  },
                  {
                    "type": "sensor",
                    "feature": "https://w3id.org/laas-iot/edr/iiot/factory#Machine001",
                    "up": 0,
                    "host": "http://blacksad.laas.fr",
                    "count": 1,
                    "measures": "machine_speed"
                  }
                ],
                "host": "http://syndream.laas.fr",
                "count": 1,
                "type": "room",
                "feature": "https://w3id.org/laas-iot/edr/iiot/factory#Machine001"
              }
            ],
            "host": "http://rate.laas.fr",
            "count": 1,
            "type": "gallery",
            "feature": "https://w3id.org/laas-iot/edr/iiot/factory#Conveyor00"
          },
          {
            "concentrates": [
              {
                "type": "sensor",
                "feature": "https://w3id.org/laas-iot/edr/iiot/factory#Conveyor01",
                "up": 0,
                "host": "http://blacksad.laas.fr",
                "count": 1,
                "measures": "luminosity"
              },
              {
                "type": "sensor",
                "feature": "https://w3id.org/laas-iot/edr/iiot/factory#Conveyor01",
                "up": 0,
                "host": "http://blacksad.laas.fr",
                "count": 1,
                "measures": "presence"
              },
              {
                "type": "sensor",
                "feature": "https://w3id.org/laas-iot/edr/iiot/factory#Conveyor01",
                "up": 0,
                "host": "http://blacksad.laas.fr",
                "count": 1,
                "measures": "conveyor_state"
              },
              {
                "type": "sensor",
                "feature": "https://w3id.org/laas-iot/edr/iiot/factory#Conveyor01",
                "up": 0,
                "host": "http://blacksad.laas.fr",
                "count": 1,
                "measures": "conveyor_speed"
              },
              {
                "type": "sensor",
                "feature": "https://w3id.org/laas-iot/edr/iiot/factory#Conveyor01",
                "up": 0,
                "host": "http://blacksad.laas.fr",
                "count": 1,
                "measures": "supervisor_presence"
              },
              {
                "concentrates": [
                  {
                    "type": "sensor",
                    "feature": "https://w3id.org/laas-iot/edr/iiot/factory#Machine010",
                    "up": 0,
                    "host": "http://blacksad.laas.fr",
                    "count": 1,
                    "measures": "particle_level"
                  },
                  {
                    "type": "sensor",
                    "feature": "https://w3id.org/laas-iot/edr/iiot/factory#Machine010",
                    "up": 0,
                    "host": "http://blacksad.laas.fr",
                    "count": 1,
                    "measures": "luminosity"
                  },
                  {
                    "type": "sensor",
                    "feature": "https://w3id.org/laas-iot/edr/iiot/factory#Machine010",
                    "up": 0,
                    "host": "http://blacksad.laas.fr",
                    "count": 1,
                    "measures": "presence"
                  },
                  {
                    "type": "sensor",
                    "feature": "https://w3id.org/laas-iot/edr/iiot/factory#Machine010",
                    "up": 0,
                    "host": "http://blacksad.laas.fr",
                    "count": 1,
                    "measures": "machine_state"
                  },
                  {
                    "type": "sensor",
                    "feature": "https://w3id.org/laas-iot/edr/iiot/factory#Machine010",
                    "up": 0,
                    "host": "http://blacksad.laas.fr",
                    "count": 1,
                    "measures": "product_quality"
                  },
                  {
                    "type": "sensor",
                    "feature": "https://w3id.org/laas-iot/edr/iiot/factory#Machine010",
                    "up": 0,
                    "host": "http://blacksad.laas.fr",
                    "count": 1,
                    "measures": "machine_speed"
                  }
                ],
                "host": "http://syndream.laas.fr",
                "count": 1,
                "type": "room",
                "feature": "https://w3id.org/laas-iot/edr/iiot/factory#Machine010"
              },
              {
                "concentrates": [
                  {
                    "type": "sensor",
                    "feature": "https://w3id.org/laas-iot/edr/iiot/factory#Machine011",
                    "up": 0,
                    "host": "http://blacksad.laas.fr",
                    "count": 1,
                    "measures": "temperature"
                  },
                  {
                    "type": "sensor",
                    "feature": "https://w3id.org/laas-iot/edr/iiot/factory#Machine011",
                    "up": 0,
                    "host": "http://blacksad.laas.fr",
                    "count": 1,
                    "measures": "luminosity"
                  },
                  {
                    "type": "sensor",
                    "feature": "https://w3id.org/laas-iot/edr/iiot/factory#Machine011",
                    "up": 0,
                    "host": "http://blacksad.laas.fr",
                    "count": 1,
                    "measures": "presence"
                  },
                  {
                    "type": "sensor",
                    "feature": "https://w3id.org/laas-iot/edr/iiot/factory#Machine011",
                    "up": 0,
                    "host": "http://blacksad.laas.fr",
                    "count": 1,
                    "measures": "machine_state"
                  },
                  {
                    "type": "sensor",
                    "feature": "https://w3id.org/laas-iot/edr/iiot/factory#Machine011",
                    "up": 0,
                    "host": "http://blacksad.laas.fr",
                    "count": 1,
                    "measures": "product_quality"
                  },
                  {
                    "type": "sensor",
                    "feature": "https://w3id.org/laas-iot/edr/iiot/factory#Machine011",
                    "up": 0,
                    "host": "http://blacksad.laas.fr",
                    "count": 1,
                    "measures": "machine_speed"
                  }
                ],
                "host": "http://syndream.laas.fr",
                "count": 1,
                "type": "room",
                "feature": "https://w3id.org/laas-iot/edr/iiot/factory#Machine011"
              }
            ],
            "host": "http://clara.laas.fr",
            "count": 1,
            "type": "gallery",
            "feature": "https://w3id.org/laas-iot/edr/iiot/factory#Conveyor01"
          }
        ],
        "host": "http://blacksad.laas.fr",
        "count": 1,
        "type": "floor",
        "feature": "https://w3id.org/laas-iot/edr/iiot/factory#Floor0"
      }
    ],
    "count": 1,
    "type": "building",
    "host": "http://syndream.laas.fr"
  }
}
