{
  "name": "myFactory",
  "centralized": "adp",
  "layers": {
    "concentrates": [
      {
        "concentrates": [
          {
            "concentrates": [
              {
                "up": 0,
                "host": "http://blacksad.laas.fr",
                "feature": "https://w3id.org/laas-iot/edr/iiot/factory#Conveyor00",
                "type": "sensor",
                "measures": "conveyor_state",
                "count": 1
              },
              {
                "up": 0,
                "host": "http://blacksad.laas.fr",
                "feature": "https://w3id.org/laas-iot/edr/iiot/factory#Conveyor00",
                "type": "sensor",
                "measures": "conveyor_speed",
                "count": 1
              },
              {
                "concentrates": [
                  {
                    "up": 0,
                    "host": "http://blacksad.laas.fr",
                    "feature": "https://w3id.org/laas-iot/edr/iiot/factory#Machine000",
                    "type": "sensor",
                    "measures": "particle_level",
                    "count": 1
                  },
                  {
                    "up": 0,
                    "host": "http://blacksad.laas.fr",
                    "feature": "https://w3id.org/laas-iot/edr/iiot/factory#Machine000",
                    "type": "sensor",
                    "measures": "machine_state",
                    "count": 1
                  },
                  {
                    "up": 0,
                    "host": "http://blacksad.laas.fr",
                    "feature": "https://w3id.org/laas-iot/edr/iiot/factory#Machine000",
                    "type": "sensor",
                    "measures": "machine_speed",
                    "count": 1
                  }
                ],
                "feature": "https://w3id.org/laas-iot/edr/iiot/factory#Machine000",
                "type": "room",
                "count": 1,
                "host": "http://syndream.laas.fr"
              },
              {
                "concentrates": [
                  {
                    "up": 0,
                    "host": "http://blacksad.laas.fr",
                    "feature": "https://w3id.org/laas-iot/edr/iiot/factory#Machine001",
                    "type": "sensor",
                    "measures": "temperature",
                    "count": 1
                  },
                  {
                    "up": 0,
                    "host": "http://blacksad.laas.fr",
                    "feature": "https://w3id.org/laas-iot/edr/iiot/factory#Machine001",
                    "type": "sensor",
                    "measures": "machine_state",
                    "count": 1
                  },
                  {
                    "up": 0,
                    "host": "http://blacksad.laas.fr",
                    "feature": "https://w3id.org/laas-iot/edr/iiot/factory#Machine001",
                    "type": "sensor",
                    "measures": "machine_speed",
                    "count": 1
                  }
                ],
                "feature": "https://w3id.org/laas-iot/edr/iiot/factory#Machine001",
                "type": "room",
                "count": 1,
                "host": "http://syndream.laas.fr"
              },
              {
                "up": 0,
                "host": "http://blacksad.laas.fr",
                "feature": "https://w3id.org/laas-iot/edr/iiot/factory#Machine000",
                "type": "sensor",
                "measures": "luminosity",
                "count": 1
              },
              {
                "up": 0,
                "host": "http://blacksad.laas.fr",
                "feature": "https://w3id.org/laas-iot/edr/iiot/factory#Machine000",
                "type": "sensor",
                "measures": "presence",
                "count": 1
              },
              {
                "up": 0,
                "host": "http://blacksad.laas.fr",
                "feature": "https://w3id.org/laas-iot/edr/iiot/factory#Machine000",
                "type": "sensor",
                "measures": "product_quality",
                "count": 1
              },
              {
                "up": 0,
                "host": "http://blacksad.laas.fr",
                "feature": "https://w3id.org/laas-iot/edr/iiot/factory#Machine001",
                "type": "sensor",
                "measures": "luminosity",
                "count": 1
              },
              {
                "up": 0,
                "host": "http://blacksad.laas.fr",
                "feature": "https://w3id.org/laas-iot/edr/iiot/factory#Machine001",
                "type": "sensor",
                "measures": "presence",
                "count": 1
              },
              {
                "up": 0,
                "host": "http://blacksad.laas.fr",
                "feature": "https://w3id.org/laas-iot/edr/iiot/factory#Machine001",
                "type": "sensor",
                "measures": "product_quality",
                "count": 1
              }
            ],
            "feature": "https://w3id.org/laas-iot/edr/iiot/factory#Conveyor00",
            "type": "gallery",
            "count": 1,
            "host": "http://rate.laas.fr"
          },
          {
            "concentrates": [
              {
                "up": 0,
                "host": "http://blacksad.laas.fr",
                "feature": "https://w3id.org/laas-iot/edr/iiot/factory#Conveyor01",
                "type": "sensor",
                "measures": "conveyor_state",
                "count": 1
              },
              {
                "up": 0,
                "host": "http://blacksad.laas.fr",
                "feature": "https://w3id.org/laas-iot/edr/iiot/factory#Conveyor01",
                "type": "sensor",
                "measures": "conveyor_speed",
                "count": 1
              },
              {
                "concentrates": [
                  {
                    "up": 0,
                    "host": "http://blacksad.laas.fr",
                    "feature": "https://w3id.org/laas-iot/edr/iiot/factory#Machine010",
                    "type": "sensor",
                    "measures": "particle_level",
                    "count": 1
                  },
                  {
                    "up": 0,
                    "host": "http://blacksad.laas.fr",
                    "feature": "https://w3id.org/laas-iot/edr/iiot/factory#Machine010",
                    "type": "sensor",
                    "measures": "machine_state",
                    "count": 1
                  },
                  {
                    "up": 0,
                    "host": "http://blacksad.laas.fr",
                    "feature": "https://w3id.org/laas-iot/edr/iiot/factory#Machine010",
                    "type": "sensor",
                    "measures": "machine_speed",
                    "count": 1
                  }
                ],
                "feature": "https://w3id.org/laas-iot/edr/iiot/factory#Machine010",
                "type": "room",
                "count": 1,
                "host": "http://syndream.laas.fr"
              },
              {
                "concentrates": [
                  {
                    "up": 0,
                    "host": "http://blacksad.laas.fr",
                    "feature": "https://w3id.org/laas-iot/edr/iiot/factory#Machine011",
                    "type": "sensor",
                    "measures": "temperature",
                    "count": 1
                  },
                  {
                    "up": 0,
                    "host": "http://blacksad.laas.fr",
                    "feature": "https://w3id.org/laas-iot/edr/iiot/factory#Machine011",
                    "type": "sensor",
                    "measures": "machine_state",
                    "count": 1
                  },
                  {
                    "up": 0,
                    "host": "http://blacksad.laas.fr",
                    "feature": "https://w3id.org/laas-iot/edr/iiot/factory#Machine011",
                    "type": "sensor",
                    "measures": "machine_speed",
                    "count": 1
                  }
                ],
                "feature": "https://w3id.org/laas-iot/edr/iiot/factory#Machine011",
                "type": "room",
                "count": 1,
                "host": "http://syndream.laas.fr"
              },
              {
                "up": 0,
                "host": "http://blacksad.laas.fr",
                "feature": "https://w3id.org/laas-iot/edr/iiot/factory#Machine010",
                "type": "sensor",
                "measures": "luminosity",
                "count": 1
              },
              {
                "up": 0,
                "host": "http://blacksad.laas.fr",
                "feature": "https://w3id.org/laas-iot/edr/iiot/factory#Machine010",
                "type": "sensor",
                "measures": "presence",
                "count": 1
              },
              {
                "up": 0,
                "host": "http://blacksad.laas.fr",
                "feature": "https://w3id.org/laas-iot/edr/iiot/factory#Machine010",
                "type": "sensor",
                "measures": "product_quality",
                "count": 1
              },
              {
                "up": 0,
                "host": "http://blacksad.laas.fr",
                "feature": "https://w3id.org/laas-iot/edr/iiot/factory#Machine011",
                "type": "sensor",
                "measures": "luminosity",
                "count": 1
              },
              {
                "up": 0,
                "host": "http://blacksad.laas.fr",
                "feature": "https://w3id.org/laas-iot/edr/iiot/factory#Machine011",
                "type": "sensor",
                "measures": "presence",
                "count": 1
              },
              {
                "up": 0,
                "host": "http://blacksad.laas.fr",
                "feature": "https://w3id.org/laas-iot/edr/iiot/factory#Machine011",
                "type": "sensor",
                "measures": "product_quality",
                "count": 1
              }
            ],
            "feature": "https://w3id.org/laas-iot/edr/iiot/factory#Conveyor01",
            "type": "gallery",
            "count": 1,
            "host": "http://clara.laas.fr"
          },
          {
            "up": 0,
            "host": "http://blacksad.laas.fr",
            "feature": "https://w3id.org/laas-iot/edr/iiot/factory#Conveyor00",
            "type": "sensor",
            "measures": "luminosity",
            "count": 1
          },
          {
            "up": 0,
            "host": "http://blacksad.laas.fr",
            "feature": "https://w3id.org/laas-iot/edr/iiot/factory#Conveyor00",
            "type": "sensor",
            "measures": "presence",
            "count": 1
          },
          {
            "up": 0,
            "host": "http://blacksad.laas.fr",
            "feature": "https://w3id.org/laas-iot/edr/iiot/factory#Conveyor01",
            "type": "sensor",
            "measures": "luminosity",
            "count": 1
          },
          {
            "up": 0,
            "host": "http://blacksad.laas.fr",
            "feature": "https://w3id.org/laas-iot/edr/iiot/factory#Conveyor01",
            "type": "sensor",
            "measures": "presence",
            "count": 1
          }
        ],
        "feature": "https://w3id.org/laas-iot/edr/iiot/factory#Floor0",
        "type": "floor",
        "count": 1,
        "host": "http://blacksad.laas.fr"
      },
      {
        "up": 0,
        "host": "http://blacksad.laas.fr",
        "feature": "https://w3id.org/laas-iot/edr/iiot/factory#Conveyor00",
        "type": "sensor",
        "measures": "supervisor_presence",
        "count": 1
      },
      {
        "up": 0,
        "host": "http://blacksad.laas.fr",
        "feature": "https://w3id.org/laas-iot/edr/iiot/factory#Conveyor01",
        "type": "sensor",
        "measures": "supervisor_presence",
        "count": 1
      }
    ],
    "type": "building",
    "count": 1,
    "host": "http://syndream.laas.fr"
  },
  "common_knowledge": [
    "https://w3id.org/laas-iot/edr/iiot/distribution/distribution_3.ttl"
  ]
}
