{
  "centralized": "adp",
  "common_knowledge": [
    "https://w3id.org/laas-iot/edr/iiot/distribution/distribution_1.ttl"
  ],
  "layers": {
    "concentrates": [
      {
        "concentrates": [
          {
            "concentrates": [
              {
                "concentrates": [],
                "count": 1,
                "type": "room",
                "host": "http://syndream.laas.fr",
                "feature": "https://w3id.org/laas-iot/edr/iiot/factory#Machine000"
              },
              {
                "concentrates": [],
                "count": 1,
                "type": "room",
                "host": "http://syndream.laas.fr",
                "feature": "https://w3id.org/laas-iot/edr/iiot/factory#Machine001"
              }
            ],
            "count": 1,
            "type": "gallery",
            "host": "http://rate.laas.fr",
            "feature": "https://w3id.org/laas-iot/edr/iiot/factory#Conveyor00"
          },
          {
            "concentrates": [
              {
                "concentrates": [],
                "count": 1,
                "type": "room",
                "host": "http://syndream.laas.fr",
                "feature": "https://w3id.org/laas-iot/edr/iiot/factory#Machine010"
              },
              {
                "concentrates": [],
                "count": 1,
                "type": "room",
                "host": "http://syndream.laas.fr",
                "feature": "https://w3id.org/laas-iot/edr/iiot/factory#Machine011"
              }
            ],
            "count": 1,
            "type": "gallery",
            "host": "http://clara.laas.fr",
            "feature": "https://w3id.org/laas-iot/edr/iiot/factory#Conveyor01"
          },
          {
            "feature": "https://w3id.org/laas-iot/edr/iiot/factory#Machine000",
            "measures": "particle_level",
            "type": "sensor",
            "host": "http://blacksad.laas.fr",
            "count": 1,
            "up": 0
          },
          {
            "feature": "https://w3id.org/laas-iot/edr/iiot/factory#Machine000",
            "measures": "presence",
            "type": "sensor",
            "host": "http://blacksad.laas.fr",
            "count": 1,
            "up": 0
          },
          {
            "feature": "https://w3id.org/laas-iot/edr/iiot/factory#Machine000",
            "measures": "machine_state",
            "type": "sensor",
            "host": "http://blacksad.laas.fr",
            "count": 1,
            "up": 0
          },
          {
            "feature": "https://w3id.org/laas-iot/edr/iiot/factory#Machine001",
            "measures": "temperature",
            "type": "sensor",
            "host": "http://blacksad.laas.fr",
            "count": 1,
            "up": 0
          },
          {
            "feature": "https://w3id.org/laas-iot/edr/iiot/factory#Machine001",
            "measures": "presence",
            "type": "sensor",
            "host": "http://blacksad.laas.fr",
            "count": 1,
            "up": 0
          },
          {
            "feature": "https://w3id.org/laas-iot/edr/iiot/factory#Machine001",
            "measures": "machine_state",
            "type": "sensor",
            "host": "http://blacksad.laas.fr",
            "count": 1,
            "up": 0
          },
          {
            "feature": "https://w3id.org/laas-iot/edr/iiot/factory#Conveyor00",
            "measures": "luminosity",
            "type": "sensor",
            "host": "http://blacksad.laas.fr",
            "count": 1,
            "up": 0
          },
          {
            "feature": "https://w3id.org/laas-iot/edr/iiot/factory#Conveyor00",
            "measures": "presence",
            "type": "sensor",
            "host": "http://blacksad.laas.fr",
            "count": 1,
            "up": 0
          },
          {
            "feature": "https://w3id.org/laas-iot/edr/iiot/factory#Conveyor00",
            "measures": "conveyor_state",
            "type": "sensor",
            "host": "http://blacksad.laas.fr",
            "count": 1,
            "up": 0
          },
          {
            "feature": "https://w3id.org/laas-iot/edr/iiot/factory#Machine010",
            "measures": "particle_level",
            "type": "sensor",
            "host": "http://blacksad.laas.fr",
            "count": 1,
            "up": 0
          },
          {
            "feature": "https://w3id.org/laas-iot/edr/iiot/factory#Machine010",
            "measures": "presence",
            "type": "sensor",
            "host": "http://blacksad.laas.fr",
            "count": 1,
            "up": 0
          },
          {
            "feature": "https://w3id.org/laas-iot/edr/iiot/factory#Machine010",
            "measures": "machine_state",
            "type": "sensor",
            "host": "http://blacksad.laas.fr",
            "count": 1,
            "up": 0
          },
          {
            "feature": "https://w3id.org/laas-iot/edr/iiot/factory#Machine011",
            "measures": "temperature",
            "type": "sensor",
            "host": "http://blacksad.laas.fr",
            "count": 1,
            "up": 0
          },
          {
            "feature": "https://w3id.org/laas-iot/edr/iiot/factory#Machine011",
            "measures": "presence",
            "type": "sensor",
            "host": "http://blacksad.laas.fr",
            "count": 1,
            "up": 0
          },
          {
            "feature": "https://w3id.org/laas-iot/edr/iiot/factory#Machine011",
            "measures": "machine_state",
            "type": "sensor",
            "host": "http://blacksad.laas.fr",
            "count": 1,
            "up": 0
          },
          {
            "feature": "https://w3id.org/laas-iot/edr/iiot/factory#Conveyor01",
            "measures": "luminosity",
            "type": "sensor",
            "host": "http://blacksad.laas.fr",
            "count": 1,
            "up": 0
          },
          {
            "feature": "https://w3id.org/laas-iot/edr/iiot/factory#Conveyor01",
            "measures": "presence",
            "type": "sensor",
            "host": "http://blacksad.laas.fr",
            "count": 1,
            "up": 0
          },
          {
            "feature": "https://w3id.org/laas-iot/edr/iiot/factory#Conveyor01",
            "measures": "conveyor_state",
            "type": "sensor",
            "host": "http://blacksad.laas.fr",
            "count": 1,
            "up": 0
          }
        ],
        "count": 1,
        "type": "floor",
        "host": "http://blacksad.laas.fr",
        "feature": "https://w3id.org/laas-iot/edr/iiot/factory#Floor0"
      },
      {
        "feature": "https://w3id.org/laas-iot/edr/iiot/factory#Machine000",
        "measures": "luminosity",
        "type": "sensor",
        "host": "http://blacksad.laas.fr",
        "count": 1,
        "up": 0
      },
      {
        "feature": "https://w3id.org/laas-iot/edr/iiot/factory#Machine000",
        "measures": "product_quality",
        "type": "sensor",
        "host": "http://blacksad.laas.fr",
        "count": 1,
        "up": 0
      },
      {
        "feature": "https://w3id.org/laas-iot/edr/iiot/factory#Machine000",
        "measures": "machine_speed",
        "type": "sensor",
        "host": "http://blacksad.laas.fr",
        "count": 1,
        "up": 0
      },
      {
        "feature": "https://w3id.org/laas-iot/edr/iiot/factory#Machine001",
        "measures": "luminosity",
        "type": "sensor",
        "host": "http://blacksad.laas.fr",
        "count": 1,
        "up": 0
      },
      {
        "feature": "https://w3id.org/laas-iot/edr/iiot/factory#Machine001",
        "measures": "product_quality",
        "type": "sensor",
        "host": "http://blacksad.laas.fr",
        "count": 1,
        "up": 0
      },
      {
        "feature": "https://w3id.org/laas-iot/edr/iiot/factory#Machine001",
        "measures": "machine_speed",
        "type": "sensor",
        "host": "http://blacksad.laas.fr",
        "count": 1,
        "up": 0
      },
      {
        "feature": "https://w3id.org/laas-iot/edr/iiot/factory#Conveyor00",
        "measures": "conveyor_speed",
        "type": "sensor",
        "host": "http://blacksad.laas.fr",
        "count": 1,
        "up": 0
      },
      {
        "feature": "https://w3id.org/laas-iot/edr/iiot/factory#Conveyor00",
        "measures": "supervisor_presence",
        "type": "sensor",
        "host": "http://blacksad.laas.fr",
        "count": 1,
        "up": 0
      },
      {
        "feature": "https://w3id.org/laas-iot/edr/iiot/factory#Machine010",
        "measures": "luminosity",
        "type": "sensor",
        "host": "http://blacksad.laas.fr",
        "count": 1,
        "up": 0
      },
      {
        "feature": "https://w3id.org/laas-iot/edr/iiot/factory#Machine010",
        "measures": "product_quality",
        "type": "sensor",
        "host": "http://blacksad.laas.fr",
        "count": 1,
        "up": 0
      },
      {
        "feature": "https://w3id.org/laas-iot/edr/iiot/factory#Machine010",
        "measures": "machine_speed",
        "type": "sensor",
        "host": "http://blacksad.laas.fr",
        "count": 1,
        "up": 0
      },
      {
        "feature": "https://w3id.org/laas-iot/edr/iiot/factory#Machine011",
        "measures": "luminosity",
        "type": "sensor",
        "host": "http://blacksad.laas.fr",
        "count": 1,
        "up": 0
      },
      {
        "feature": "https://w3id.org/laas-iot/edr/iiot/factory#Machine011",
        "measures": "product_quality",
        "type": "sensor",
        "host": "http://blacksad.laas.fr",
        "count": 1,
        "up": 0
      },
      {
        "feature": "https://w3id.org/laas-iot/edr/iiot/factory#Machine011",
        "measures": "machine_speed",
        "type": "sensor",
        "host": "http://blacksad.laas.fr",
        "count": 1,
        "up": 0
      },
      {
        "feature": "https://w3id.org/laas-iot/edr/iiot/factory#Conveyor01",
        "measures": "conveyor_speed",
        "type": "sensor",
        "host": "http://blacksad.laas.fr",
        "count": 1,
        "up": 0
      },
      {
        "feature": "https://w3id.org/laas-iot/edr/iiot/factory#Conveyor01",
        "measures": "supervisor_presence",
        "type": "sensor",
        "host": "http://blacksad.laas.fr",
        "count": 1,
        "up": 0
      }
    ],
    "count": 1,
    "type": "building",
    "host": "http://syndream.laas.fr"
  },
  "name": "myFactory"
}
