{
  "name": "building-notimediff",
  "centralized": true,
  "layers": {
    "type": "building",
    "count": 1,
    "host": "http://syndream.laas.fr",
    "concentrates": [{
      "type": "floor",
      "count": 1,
      "host": "http://140.93.48.5",
      "feature": "self",
      "concentrates": [{
          "type": "sensor",
          "host": "http://syndream.laas.fr",
          "measures": "temperature_request",
          "count": 1
        }, {
          "type": "sensor",
          "host": "http://syndream.laas.fr",
          "measures": "power_redistribution",
          "count": 1
        },
        {
          "type": "room",
          "count": 2,
          "feature": "self",
          "host": "http://rate.laas.fr",
          "concentrates": [{
              "type": "sensor",
              "host": "http://syndream.laas.fr",
              "measures": "temperature",
              "count": 1
            },
            {
              "type": "sensor",
              "host": "http://syndream.laas.fr",
              "measures": "luminosity",
              "count": 1
            },
            {
              "type": "sensor",
              "host": "http://syndream.laas.fr",
              "measures": "humidity",
              "count": 1
            }, {
              "type": "sensor",
              "host": "http://syndream.laas.fr",
              "measures": "power_production",
              "count": 1
            }
          ]
        }
      ]
    }]
  }
}
