{
  "name":"comfort-app",
  "uri":"http://syndream.laas.fr/",
  "port":8005,
  "endpoint":"http://syndream.laas.fr:6001/rules/add",
  "ruleset":[
    "rules-syndream/abstract/r1.ttl",
    "rules-syndream/abstract/r2.ttl",
    "rules-syndream/abstract/r3.ttl",
    "rules-syndream/abstract/r4.ttl",
    "rules-syndream/abstract/r5.ttl",
    "rules-syndream/abstract/r6.ttl",
    "rules-syndream/abstract/r7.ttl",
    "rules-syndream/abstract/r8.ttl",
    "rules-syndream/abstract/r9.ttl"
  ]
}
