{
  "name":"comfort-app",
  "uri":"http://syndream.laas.fr/",
  "port":8002,
  "endpoint":"http://syndream.laas.fr:6001/rules/add",
  "ruleset":["rules-syndream/comfort/aboveThresholdTemperature.ttl", "rules-syndream/comfort/comfortableSpot.ttl", "rules-syndream/comfort/veryComfortableSpot.ttl","rules-syndream/comfort/uncomfortableSpot.ttl"]
}
