{
  "name":"comfort-app",
  "uri":"http://syndream.laas.fr/",
  "port":8005,
  "endpoint":"http://syndream.laas.fr:6001/rules/add",
  "ruleset":[
    "shapes-syndream/abstract/r1Shape.ttl",
    "shapes-syndream/abstract/r2Shape.ttl",
    "shapes-syndream/abstract/r3Shape.ttl",
    "shapes-syndream/abstract/r4Shape.ttl",
    "shapes-syndream/abstract/r5Shape.ttl",
    "shapes-syndream/abstract/r6Shape.ttl",
    "shapes-syndream/abstract/r7Shape.ttl",
    "shapes-syndream/abstract/r8Shape.ttl",
    "shapes-syndream/abstract/r9Shape.ttl"
  ]
}
